[{
        "id": "nuevayork",
        "ciudad": "Nueva York",
        "fecha": "Nueva York   /   2023-06-15",
        "img": "/images/nyork.jpg",
        "resume": "Descubre la Gran Manzana en todo su esplendor",
        "body": "Nueva York, la ciudad que nunca duerme, te espera con sus rascacielos imponentes, sus icónicos puntos turísticos como Times Square y Central Park, y su vibrante vida cultural. Prepárate para vivir una experiencia única en esta metrópolis cosmopolita."
    },
    {
        "id": "paris",
        "ciudad": "París",
        "fecha": "Paris   /   2023-07-20",
        "img": "/images/paris.jpg",
        "resume": "Sumérgete en la magia de la Ciudad de la Luz",
        "body": "París, la romántica capital de Francia, te espera con sus elegantes bulevares, su impresionante arquitectura y su inigualable gastronomía. Desde la majestuosidad de la Torre Eiffel hasta la belleza del Museo del Louvre, descubrirás un destino que te transportará a otra época."
    },
    {
        "id": "tokio",
        "ciudad": "Tokio",
        "fecha": "Tokio   /   2023-08-10",
        "img": "/images/tokyo.jpg",
        "resume": "Sumérgete en la fascinante cultura japonesa",
        "body": "Tokio, la capital de Japón, te sorprenderá con su modernidad y tradición entrelazadas. Desde los rascacielos iluminados de Shibuya hasta los templos históricos de Asakusa, vivirás una experiencia única. No te pierdas la oportunidad de probar la deliciosa gastronomía local y explorar los barrios vibrantes de la ciudad."
    },
    {
        "id": "roma",
        "ciudad": "Roma",
        "fecha": "Roma   /   2023-09-18",
        "img": "/images/roma.jpg",
        "resume": "Sumérgete en la antigua historia de la Ciudad Eterna",
        "body": "Roma, la capital de Italia, te transportará a través de los siglos con sus monumentos y ruinas históricas. Desde el majestuoso Coliseo hasta la grandiosidad de la Ciudad del Vaticano, descubrirás una ciudad llena de encanto y belleza. No olvides probar la auténtica pizza y pasta italiana durante tu visita."
    },
    {
        "id": "sidney",
        "ciudad": "Sídney",
        "fecha": "Sidney   /   2023-10-12",
        "img": "/images/sidney.jpg",
        "resume": "Descubre la belleza costera de la ciudad australiana",
        "body": "Sídney, una de las ciudades más icónicas de Australia, te maravillará con su impresionante puerto y su famosa Ópera. Desde las playas de Bondi y Manly hasta los jardines botánicos repletos de exuberante vegetación, disfrutarás de un estilo de vida relajado y vistas impresionantes."
    },
    {
        "id": "estambul",
        "ciudad": "Estambul",
        "fecha": "Estambul   /   2023-11-05",
        "img": "/images/estambul.jpg",
        "resume": "Explora el cruce de culturas entre Europa y Asia",
        "body": "Estambul, la ciudad que conecta dos continentes, te cautivará con su rica historia y su arquitectura fascinante. Desde la majestuosidad de la Mezquita Azul hasta la impresionante basílica de Santa Sofía, descubrirás una ciudad llena de contrastes y maravillas por explorar."
    }
]